[gd_scene load_steps=6 format=2]

[ext_resource path="res://Common/UI/Buttons/BtnBase/Disabled2.png" type="Texture" id=1]
[ext_resource path="res://Common/UI/Buttons/BtnBase/Hover2.png" type="Texture" id=2]
[ext_resource path="res://Common/UI/Buttons/BtnBase/Normal2.png" type="Texture" id=4]
[ext_resource path="res://Common/UI/Fonts/FntMenuHuge.tres" type="DynamicFont" id=5]
[ext_resource path="res://Common/UI/Buttons/BtnBase/BtnBase.cs" type="Script" id=6]

[node name="BtnBase" type="TextureButton"]
margin_right = 300.0
margin_bottom = 153.0
rect_scale = Vector2( 0.6, 0.6 )
texture_normal = ExtResource( 4 )
texture_pressed = ExtResource( 4 )
texture_hover = ExtResource( 2 )
texture_disabled = ExtResource( 1 )
script = ExtResource( 6 )
__meta__ = {
"_edit_use_anchors_": false
}

[node name="Label" type="Label" parent="."]
margin_left = 14.0
margin_top = 23.0
margin_right = 277.0
margin_bottom = 123.0
custom_fonts/font = ExtResource( 5 )
text = "Button Text"
align = 1
valign = 1
autowrap = true
__meta__ = {
"_edit_use_anchors_": false
}

[node name="SoundPlayer" type="AudioStreamPlayer" parent="."]
[connection signal="button_down" from="." to="." method="OnBtnBaseButtonDown"]
