[gd_scene load_steps=3 format=2]

[ext_resource path="res://Entities/Poo/poo.png" type="Texture" id=1]
[ext_resource path="res://Entities/Poo/Poo.cs" type="Script" id=2]

[node name="Poo" type="Control"]
anchor_right = 1.0
anchor_bottom = 1.0
margin_right = -928.0
margin_bottom = -508.0
script = ExtResource( 2 )
__meta__ = {
"_edit_use_anchors_": false
}

[node name="TextureRect" type="TextureRect" parent="."]
margin_right = 64.0
margin_bottom = 64.0
rect_scale = Vector2( 0.5, 0.5 )
texture = ExtResource( 1 )
__meta__ = {
"_edit_use_anchors_": false
}

[node name="TimerFumes" type="Timer" parent="."]
wait_time = 10.0
[connection signal="gui_input" from="." to="." method="OnPooGUIInput"]
[connection signal="timeout" from="TimerFumes" to="." method="OnTimerFumesTimeout"]
